
============================================================================================================================
                                                                                                          
 ______              _                 _                 _____             _                                                
|  ___ \            (_)_              (_)               / ___ \           | |               _               _               
| | _ | | ___  ____  _| |_  ___   ____ _ ____   ____   | |   | | ____ ____| | _   ____  ___| |_   ____ ____| |_  ___   ____ 
| || || |/ _ \|  _ \| |  _)/ _ \ / ___) |  _ \ / _  |  | |   | |/ ___) ___) || \ / _  )/___)  _) / ___) _  |  _)/ _ \ / ___)
| || || | |_| | | | | | |_| |_| | |   | | | | ( ( | |  | |___| | |  ( (___| | | ( (/ /|___ | |__| |  ( ( | | |_| |_| | |    
|_||_||_|\___/|_| |_|_|\___)___/|_|   |_|_| |_|\_|| |   \_____/|_|   \____)_| |_|\____|___/ \___)_|   \_||_|\___)___/|_|    
                                              (_____|                                                                       
                                                                                                 
                                               ${project.version} 								
								
=============================================================================================================================

